\relax 
\providecommand\zref@newlabel[2]{}
\catcode `"\active 
\catcode `<\active 
\catcode `>\active 
\@nameuse{es@quoting}
\abx@aux@refcontext{cms/global//global/global}
\providecommand \oddpage@label [2]{}
\@writefile{toc}{\boolfalse {citerequest}\boolfalse {citetracker}\boolfalse {pagetracker}\boolfalse {backtracker}\relax }
\@writefile{lof}{\boolfalse {citerequest}\boolfalse {citetracker}\boolfalse {pagetracker}\boolfalse {backtracker}\relax }
\@writefile{lot}{\boolfalse {citerequest}\boolfalse {citetracker}\boolfalse {pagetracker}\boolfalse {backtracker}\relax }
\babel@aux{spanish}{}
\@writefile{toc}{\defcounter {refsection}{0}\relax }\@writefile{toc}{\contentsline {chapter}{\numberline {1}Primer Parcial}{3}}
\@writefile{lof}{\defcounter {refsection}{0}\relax }\@writefile{lof}{\addvspace {10\p@ }}
\@writefile{lot}{\defcounter {refsection}{0}\relax }\@writefile{lot}{\addvspace {10\p@ }}
\@writefile{toc}{\defcounter {refsection}{0}\relax }\@writefile{toc}{\contentsline {section}{\numberline {1.1}Preliminarias}{3}}
\@writefile{toc}{\defcounter {refsection}{0}\relax }\@writefile{toc}{\contentsline {section}{\numberline {1.2}Axiomas de Zermelo-Fraenkel}{3}}
\zref@newlabel{mdf@pagelabel-1}{\default{1.2}\page{4}\abspage{4}\mdf@pagevalue{4}}
\zref@newlabel{mdf@pagelabel-2}{\default{1.2}\page{4}\abspage{4}\mdf@pagevalue{4}}
\@writefile{toc}{\defcounter {refsection}{0}\relax }\@writefile{toc}{\contentsline {section}{\numberline {1.3}Problemas}{5}}
\zref@newlabel{mdf@pagelabel-3}{\default{1.3}\page{5}\abspage{5}\mdf@pagevalue{5}}
\zref@newlabel{mdf@pagelabel-4}{\default{1.3}\page{5}\abspage{5}\mdf@pagevalue{5}}
\@writefile{toc}{\defcounter {refsection}{0}\relax }\@writefile{toc}{\contentsline {paragraph}{Soluci\IeC {\'o}n: \\}{5}}
\@writefile{toc}{\defcounter {refsection}{0}\relax }\@writefile{toc}{\contentsline {paragraph}{Soluci\IeC {\'o}n: \\}{5}}
\@writefile{toc}{\defcounter {refsection}{0}\relax }\@writefile{toc}{\contentsline {paragraph}{Soluci\IeC {\'o}n: \\}{6}}
\@writefile{toc}{\defcounter {refsection}{0}\relax }\@writefile{toc}{\contentsline {paragraph}{Soluci\IeC {\'o}n: \\}{6}}
\@writefile{toc}{\defcounter {refsection}{0}\relax }\@writefile{toc}{\contentsline {paragraph}{Soluci\IeC {\'o}n: \\}{6}}
\@writefile{toc}{\defcounter {refsection}{0}\relax }\@writefile{toc}{\contentsline {paragraph}{Soluci\IeC {\'o}n: \\}{7}}
\@writefile{toc}{\defcounter {refsection}{0}\relax }\@writefile{toc}{\contentsline {paragraph}{Soluci\IeC {\'o}n: \\}{7}}
\@writefile{toc}{\defcounter {refsection}{0}\relax }\@writefile{toc}{\contentsline {paragraph}{Soluci\IeC {\'o}n: \\}{7}}
\@writefile{toc}{\defcounter {refsection}{0}\relax }\@writefile{toc}{\contentsline {paragraph}{Soluci\IeC {\'o}n: \\}{8}}
\newlabel{pr:pr11}{{1.3.10}{8}}
\@writefile{toc}{\defcounter {refsection}{0}\relax }\@writefile{toc}{\contentsline {paragraph}{Soluci\IeC {\'o}n: \\}{8}}
\@writefile{toc}{\defcounter {refsection}{0}\relax }\@writefile{toc}{\contentsline {chapter}{\numberline {2}Segundo Parcial}{9}}
\@writefile{lof}{\defcounter {refsection}{0}\relax }\@writefile{lof}{\addvspace {10\p@ }}
\@writefile{lot}{\defcounter {refsection}{0}\relax }\@writefile{lot}{\addvspace {10\p@ }}
\@writefile{toc}{\defcounter {refsection}{0}\relax }\@writefile{toc}{\contentsline {section}{\numberline {2.1}Los N\IeC {\'u}meros Naturales}{9}}
\zref@newlabel{mdf@pagelabel-5}{\default{2.1}\page{9}\abspage{9}\mdf@pagevalue{9}}
\zref@newlabel{mdf@pagelabel-6}{\default{2.1}\page{9}\abspage{9}\mdf@pagevalue{9}}
\zref@newlabel{mdf@pagelabel-7}{\default{2.1}\page{10}\abspage{10}\mdf@pagevalue{10}}
\zref@newlabel{mdf@pagelabel-8}{\default{2.1}\page{10}\abspage{10}\mdf@pagevalue{10}}
\newlabel{lem:p1l1}{{2.1.1}{10}}
\zref@newlabel{mdf@pagelabel-9}{\default{2.1}\page{12}\abspage{12}\mdf@pagevalue{12}}
\zref@newlabel{mdf@pagelabel-10}{\default{2.1}\page{12}\abspage{12}\mdf@pagevalue{12}}
\newlabel{pr:recurrencia}{{3}{12}}
\newlabel{pr:recurrencia2}{{4}{13}}
\zref@newlabel{mdf@pagelabel-11}{\default{2.1}\page{18}\abspage{18}\mdf@pagevalue{18}}
\zref@newlabel{mdf@pagelabel-12}{\default{2.1}\page{18}\abspage{18}\mdf@pagevalue{18}}
\newlabel{prop:21}{{8}{18}}
\newlabel{prop:22}{{9}{19}}
\newlabel{prop:23}{{10}{19}}
\newlabel{prop:24}{{11}{20}}
\newlabel{prop:25}{{12}{20}}
\newlabel{prop:26}{{13}{20}}
\newlabel{prop:27}{{14}{21}}
\@writefile{toc}{\defcounter {refsection}{0}\relax }\@writefile{toc}{\contentsline {subsection}{\numberline {2.1.1}Ejercicios}{21}}
\@writefile{toc}{\defcounter {refsection}{0}\relax }\@writefile{toc}{\contentsline {section}{\numberline {2.2}Equivalencias del Axioma de Elecci\IeC {\'o}n}{22}}
\zref@newlabel{mdf@pagelabel-13}{\default{2.2}\page{28}\abspage{28}\mdf@pagevalue{28}}
\@writefile{toc}{\defcounter {refsection}{0}\relax }\@writefile{toc}{\contentsline {chapter}{\numberline {3}Tercer Parcial}{33}}
\@writefile{lof}{\defcounter {refsection}{0}\relax }\@writefile{lof}{\addvspace {10\p@ }}
\@writefile{lot}{\defcounter {refsection}{0}\relax }\@writefile{lot}{\addvspace {10\p@ }}
\@writefile{toc}{\defcounter {refsection}{0}\relax }\@writefile{toc}{\contentsline {section}{\numberline {3.1}Enteros}{33}}
\newlabel{lemma:1}{{3.1.1}{33}}
\zref@newlabel{mdf@pagelabel-14}{\default{3.1}\page{33}\abspage{33}\mdf@pagevalue{33}}
\zref@newlabel{mdf@pagelabel-15}{\default{3.1}\page{33}\abspage{33}\mdf@pagevalue{33}}
\newlabel{lemma:2}{{3.1.2}{33}}
\newlabel{lemma:3}{{3.1.3}{34}}
\zref@newlabel{mdf@pagelabel-16}{\default{3.1}\page{34}\abspage{34}\mdf@pagevalue{34}}
\newlabel{lemma:4}{{3.1.4}{34}}
\newlabel{lemma:5}{{3.1.5}{34}}
\newlabel{lemma:6}{{3.1.6}{35}}
\newlabel{lemma:7}{{3.1.7}{35}}
\zref@newlabel{mdf@pagelabel-17}{\default{3.1}\page{35}\abspage{35}\mdf@pagevalue{35}}
\zref@newlabel{mdf@pagelabel-18}{\default{3.1}\page{35}\abspage{35}\mdf@pagevalue{35}}
\zref@newlabel{mdf@pagelabel-19}{\default{3.1}\page{35}\abspage{35}\mdf@pagevalue{35}}
\newlabel{prop:28}{{15}{35}}
\newlabel{prop:29}{{16}{36}}
\zref@newlabel{mdf@pagelabel-20}{\default{3.1}\page{37}\abspage{37}\mdf@pagevalue{37}}
\newlabel{prop:30}{{17}{37}}
\zref@newlabel{mdf@pagelabel-21}{\default{3.1}\page{37}\abspage{37}\mdf@pagevalue{37}}
\newlabel{prop:31}{{18}{37}}
\newlabel{prop:32}{{19}{37}}
\newlabel{prop:33}{{20}{37}}
\zref@newlabel{mdf@pagelabel-22}{\default{3.1}\page{38}\abspage{38}\mdf@pagevalue{38}}
\zref@newlabel{mdf@pagelabel-23}{\default{3.1}\page{38}\abspage{38}\mdf@pagevalue{38}}
\zref@newlabel{mdf@pagelabel-24}{\default{3.1}\page{38}\abspage{38}\mdf@pagevalue{38}}
\zref@newlabel{mdf@pagelabel-25}{\default{3.1}\page{38}\abspage{38}\mdf@pagevalue{38}}
\zref@newlabel{mdf@pagelabel-26}{\default{3.1}\page{38}\abspage{38}\mdf@pagevalue{38}}
\zref@newlabel{mdf@pagelabel-27}{\default{3.1}\page{39}\abspage{39}\mdf@pagevalue{39}}
\newlabel{prop:34}{{21}{39}}
\newlabel{prop:35}{{22}{39}}
\newlabel{ej:2}{{3.1.2}{40}}
\newlabel{prop:36}{{23}{40}}
\@writefile{toc}{\defcounter {refsection}{0}\relax }\@writefile{toc}{\contentsline {paragraph}{Resumen}{40}}
\@writefile{toc}{\defcounter {refsection}{0}\relax }\@writefile{toc}{\contentsline {section}{\numberline {3.2}Racionales}{41}}
\zref@newlabel{mdf@pagelabel-28}{\default{3.2}\page{41}\abspage{41}\mdf@pagevalue{41}}
\zref@newlabel{mdf@pagelabel-29}{\default{3.2}\page{41}\abspage{41}\mdf@pagevalue{41}}
\newlabel{lemma:rat1}{{3.2.1}{41}}
\newlabel{36:alpha}{{3.1}{41}}
\newlabel{36:beta}{{3.2}{41}}
\zref@newlabel{mdf@pagelabel-30}{\default{3.2}\page{42}\abspage{42}\mdf@pagevalue{42}}
\newlabel{prop:37}{{24}{42}}
\zref@newlabel{mdf@pagelabel-31}{\default{3.2}\page{43}\abspage{43}\mdf@pagevalue{43}}
\zref@newlabel{mdf@pagelabel-32}{\default{3.2}\page{43}\abspage{43}\mdf@pagevalue{43}}
\newlabel{prop:38}{{25}{43}}
\newlabel{prop:39}{{26}{44}}
\newlabel{prop:40}{{27}{46}}
\@writefile{toc}{\defcounter {refsection}{0}\relax }\@writefile{toc}{\contentsline {section}{\numberline {3.3}Los N\IeC {\'u}meros Reales}{47}}
\zref@newlabel{mdf@pagelabel-33}{\default{3.3}\page{47}\abspage{47}\mdf@pagevalue{47}}
\zref@newlabel{mdf@pagelabel-34}{\default{3.3}\page{47}\abspage{47}\mdf@pagevalue{47}}
\zref@newlabel{mdf@pagelabel-35}{\default{3.3}\page{47}\abspage{47}\mdf@pagevalue{47}}
\zref@newlabel{mdf@pagelabel-36}{\default{3.3}\page{47}\abspage{47}\mdf@pagevalue{47}}
\newlabel{prop:41}{{28}{47}}
\newlabel{prop:42}{{29}{47}}
\newlabel{prop:43}{{30}{48}}
\zref@newlabel{mdf@pagelabel-37}{\default{3.3}\page{49}\abspage{49}\mdf@pagevalue{49}}
\newlabel{prop:44}{{31}{49}}
\zref@newlabel{mdf@pagelabel-38}{\default{3.3}\page{49}\abspage{49}\mdf@pagevalue{49}}
\newlabel{prop:45}{{32}{49}}
\zref@newlabel{mdf@pagelabel-39}{\default{3.3}\page{50}\abspage{50}\mdf@pagevalue{50}}
\newlabel{prop:46}{{33}{50}}
\zref@newlabel{mdf@pagelabel-40}{\default{3.3}\page{51}\abspage{51}\mdf@pagevalue{51}}
\newlabel{prop:47}{{34}{51}}
\zref@newlabel{mdf@pagelabel-41}{\default{3.3}\page{51}\abspage{51}\mdf@pagevalue{51}}
\newlabel{prop:48}{{35}{51}}
\newlabel{prop:49}{{36}{52}}
\newlabel{prop:50}{{37}{52}}
\newlabel{prop:51}{{38}{53}}
\newlabel{prop:52}{{39}{54}}
\zref@newlabel{mdf@pagelabel-42}{\default{3.3}\page{55}\abspage{55}\mdf@pagevalue{55}}
\newlabel{prop:53}{{40}{55}}
\zref@newlabel{mdf@pagelabel-43}{\default{3.3}\page{55}\abspage{55}\mdf@pagevalue{55}}
\newlabel{prop:54}{{41}{55}}
\zref@newlabel{mdf@pagelabel-44}{\default{3.3}\page{56}\abspage{56}\mdf@pagevalue{56}}
\newlabel{prop:55}{{42}{56}}
\newlabel{prop:56}{{43}{56}}
\zref@newlabel{mdf@pagelabel-45}{\default{3.3}\page{57}\abspage{57}\mdf@pagevalue{57}}
\newlabel{prop:57}{{44}{57}}
